<svg width="76" height="45" viewBox="0 0 76 45" fill="none" xmlns="http://www.w3.org/2000/svg">
<g opacity="0.95">
<path d="M38.0544 44.9818C32.7046 44.9818 27.3548 45.0283 22.005 44.9725C16.2179 44.9075 11.2216 42.7783 7.05343 38.799C3.38765 35.3031 1.17329 31.0076 0.391756 26.0241C-1.39461 14.6068 5.57409 3.8216 16.6831 0.762708C18.6555 0.223451 20.6652 0.00960697 22.7028 0.00960697C32.9186 0.00960697 43.1344 0.0560947 53.3502 0.000309423C64.2265 -0.0554759 72.9816 7.43835 75.2983 17.1729C78.2663 29.6595 70.5161 41.9787 58.058 44.5449C56.5787 44.8517 55.0435 44.9539 53.5362 44.9632C48.3725 45.019 43.2088 44.9818 38.0544 44.9818ZM38.0451 1.35775V1.34845C32.8534 1.34845 27.6618 1.35775 22.4609 1.34845C18.6741 1.33916 15.1479 2.2968 11.8822 4.2028C3.93658 8.84228 -0.0362283 18.0747 1.96413 27.2421C4.02032 36.707 12.5707 43.643 22.2655 43.6616C32.7883 43.6802 43.3204 43.6802 53.8433 43.643C55.2389 43.6337 56.6624 43.4756 58.0301 43.1781C68.6646 40.9188 76.0333 30.6636 74.3865 19.3857C73.6143 14.0768 71.1208 9.66046 67.0085 6.20177C63.352 3.13358 59.1093 1.45073 54.3271 1.37635C48.9028 1.30197 43.4693 1.35775 38.0451 1.35775Z" fill="#fff"/>
<path d="M38.0265 42.267C32.8814 42.267 27.7362 42.267 22.5818 42.267C13.3988 42.267 5.56478 36.1771 3.39695 27.27C0.726696 16.3082 7.50932 5.53236 18.3206 3.18008C19.5115 2.91975 20.7489 2.77098 21.9584 2.77098C32.5278 2.74309 43.1065 2.73379 53.6758 2.75239C62.282 2.77098 69.7345 8.31233 72.3303 16.5593C75.503 26.6378 70.209 37.4601 60.3375 41.0955C58.1789 41.8858 55.9553 42.2763 53.6572 42.2763C48.447 42.267 43.2367 42.267 38.0265 42.267ZM38.0172 40.956C43.3018 40.956 48.5865 40.9653 53.8712 40.9467C55.8064 40.9467 57.6951 40.6027 59.5187 39.9705C68.0505 37.0046 73.1491 28.3764 71.6605 19.4229C70.1811 10.5437 62.5611 4.07264 53.5735 4.06334C43.1995 4.06334 32.8348 4.06334 22.4609 4.06334C20.2372 4.06334 18.088 4.45384 16.0132 5.23484C7.72331 8.34022 2.8201 17.0892 4.4483 25.8661C6.0765 34.6616 13.529 40.9095 22.4795 40.956C27.6618 40.9746 32.8348 40.956 38.0172 40.956Z" fill="#fff"/>
<path d="M38.0265 5.46726C43.3111 5.46726 48.5958 5.42077 53.8805 5.47656C62.4774 5.56023 69.6787 12.2731 70.4416 20.8361C71.1673 28.9622 66.3386 36.3537 58.7186 38.7618C57.0532 39.2918 55.3412 39.5521 53.6014 39.5521C43.2274 39.5521 32.8627 39.5521 22.4888 39.5521C14.0035 39.5521 6.84873 33.3134 5.68572 24.9084C4.4669 16.0758 10.0214 7.92181 18.7206 5.89495C20.0232 5.59742 21.3909 5.48585 22.7307 5.47656C27.8293 5.43007 32.9279 5.45796 38.0265 5.46726ZM38.0265 6.78751C32.8906 6.78751 27.7641 6.76891 22.6283 6.79681C21.5677 6.8061 20.4791 6.87119 19.437 7.08503C11.0914 8.79578 5.67642 16.6708 7.05341 25.0479C8.30945 32.7184 14.813 38.2318 22.5911 38.2225C32.9186 38.2132 43.246 38.2318 53.5735 38.2039C54.6155 38.2039 55.6855 38.0924 56.7089 37.8878C66.9991 35.8238 72.5536 24.1553 67.1387 14.6997C64.1521 9.4931 59.5001 6.8433 53.4711 6.78751C48.326 6.75032 43.1716 6.78751 38.0265 6.78751Z" fill="#fff"/>
<path d="M38.0079 36.8C32.6767 36.8 27.3362 36.8465 22.005 36.7814C18.1252 36.7349 14.8409 35.2008 12.1706 32.4116C5.70434 25.643 7.38837 14.5324 15.5666 9.9487C17.7716 8.73072 20.1442 8.18217 22.6562 8.18217C32.9093 8.18217 43.153 8.17287 53.406 8.18217C60.3468 8.19146 66.0036 12.6543 67.5016 19.4415C69.3158 27.6884 63.78 35.3496 56.0018 36.6048C55.1645 36.7442 54.3085 36.8 53.4618 36.8C48.3074 36.8186 43.1623 36.8093 38.0079 36.8ZM38.0544 9.52101C32.9093 9.52101 27.7641 9.50242 22.6097 9.53961C21.5398 9.5489 20.4326 9.64188 19.3905 9.90221C12.8963 11.5293 8.83049 17.5448 9.65855 24.2297C10.4494 30.5986 15.9481 35.4798 22.3585 35.4798C32.8255 35.4798 43.2832 35.4798 53.7502 35.4705C54.4294 35.4705 55.1086 35.4054 55.7785 35.2938C62.6635 34.1502 67.4364 27.549 66.4037 20.6595C65.4175 14.114 59.8444 9.41874 53.406 9.50242C48.2888 9.5768 43.1716 9.52101 38.0544 9.52101Z" fill="#fff"/>
<path d="M38.0265 10.9249C43.2181 10.9249 48.4098 10.9063 53.6107 10.9342C58.9047 10.9528 63.2962 14.3371 64.7197 19.4229C66.5061 25.8196 62.5239 32.4394 56.0297 33.8341C55.2947 33.9921 54.5225 34.0851 53.7689 34.0851C43.2739 34.1037 32.779 34.1037 22.2841 34.0944C16.6924 34.0851 11.8078 29.7897 11.0635 24.2576C10.2168 18.0376 13.9663 12.5613 20.0511 11.1853C20.8978 10.99 21.8003 10.9435 22.6749 10.9435C27.7921 10.9156 32.9093 10.9249 38.0265 10.9249ZM38.0451 12.2452C32.9 12.2452 27.7549 12.2359 22.6097 12.2545C21.9305 12.2545 21.2514 12.3196 20.5815 12.4311C15.3247 13.333 11.5659 18.5303 12.3195 23.8113C13.0824 29.1109 17.3158 32.7742 22.6656 32.7742C32.8535 32.7742 43.032 32.7742 53.2199 32.7742C53.6851 32.7742 54.1503 32.7463 54.6062 32.7091C60.6724 32.1605 64.9709 26.2008 63.566 20.2969C62.403 15.4064 58.4116 12.2545 53.3874 12.2452C48.2795 12.2452 43.1623 12.2452 38.0451 12.2452Z" fill="#fff"/>
<path d="M46.0651 22.5097C46.0651 23.3744 46.0651 24.2483 46.0651 25.113C46.0651 26.7494 45.2836 27.7907 43.7112 28.237C42.4459 28.5996 41.2177 28.4787 40.1106 27.7442C39.2639 27.1957 38.8173 26.3868 38.8173 25.364C38.808 23.5696 38.8173 21.7752 38.8173 19.9715C38.8173 18.2235 39.6919 17.1171 41.4131 16.6708C42.4645 16.4012 43.4786 16.5128 44.4276 17.0148C45.4976 17.582 46.093 18.4653 46.0837 19.7111C46.0558 20.6502 46.0651 21.5799 46.0651 22.5097ZM43.981 22.5376C43.9624 22.5376 43.9438 22.5376 43.9252 22.5376C43.9252 21.6078 43.981 20.6781 43.9066 19.7576C43.8508 19.0324 43.1716 18.5768 42.3993 18.6047C41.5992 18.6326 40.9572 19.1347 40.9386 19.8878C40.9014 21.6357 40.9107 23.3837 40.9386 25.1316C40.9479 25.7731 41.4317 26.238 42.0644 26.3682C43.1623 26.582 43.9345 25.987 43.9717 24.862C44.0089 24.0903 43.981 23.3186 43.981 22.5376Z" fill="#fff"/>
<path d="M29.9413 22.5097C29.9413 21.6078 29.9599 20.7152 29.9413 19.8134C29.9041 18.4002 30.6019 17.4611 31.8486 16.9126C33.114 16.3547 34.3793 16.4012 35.6074 17.0613C36.6495 17.6192 37.2077 18.5117 37.217 19.6925C37.2356 21.5706 37.2356 23.4394 37.217 25.3175C37.2077 26.5076 36.6588 27.4095 35.5981 27.9301C34.0444 28.6925 32.5092 28.6367 31.0764 27.6233C30.3414 27.1027 29.9599 26.3589 29.9599 25.4384C29.9506 24.4622 29.9413 23.4859 29.9413 22.5097ZM35.0771 22.5562C35.0771 21.7008 35.0864 20.8547 35.0771 19.9993C35.0585 19.2741 34.5747 18.7442 33.8676 18.6326C32.8162 18.4652 32.044 19.1068 32.0347 20.1946C32.0254 21.7473 32.0347 23.2907 32.0347 24.8434C32.0347 24.9642 32.044 25.0944 32.0719 25.2153C32.2301 26.0148 32.8627 26.489 33.6908 26.4239C34.5375 26.3589 35.0678 25.8196 35.0864 24.9921C35.0864 24.1739 35.0771 23.365 35.0771 22.5562Z" fill="#fff"/>
<path d="M47.7119 22.5283C47.7119 21.6636 47.7119 20.7896 47.7119 19.925C47.7119 18.2328 48.5586 17.145 50.2054 16.6987C51.2568 16.4105 52.2709 16.5128 53.2292 16.9869C54.3643 17.5541 54.9691 18.4838 54.9784 19.7762C54.9877 21.5427 54.9784 23.3093 54.9784 25.0758C54.9784 26.7308 54.1596 27.8186 52.55 28.2556C51.1544 28.6368 49.8426 28.4508 48.6982 27.5304C48.0562 27.0097 47.7119 26.3124 47.7119 25.4663C47.7119 24.4808 47.7119 23.5045 47.7119 22.5283ZM52.8478 22.5748C52.8385 21.7101 52.8571 20.8361 52.8385 19.9714C52.8199 19.2927 52.3546 18.7721 51.6941 18.6419C50.652 18.4374 49.8239 19.0696 49.8053 20.1295C49.7774 21.7287 49.796 23.3186 49.796 24.9177C49.796 24.9921 49.8053 25.0758 49.8239 25.1502C49.9728 25.987 50.5962 26.4797 51.4335 26.4146C52.2988 26.3496 52.8292 25.8103 52.8478 24.9456C52.8571 24.1553 52.8478 23.3651 52.8478 22.5748Z" fill="#fff"/>
<path d="M23.2796 21.4962C23.7541 21.4962 24.1914 21.5148 24.6194 21.4962C25.4381 21.4497 26.015 20.9012 26.0708 20.1388C26.1266 19.3671 25.6894 18.7906 24.9171 18.6512C24.0891 18.5024 23.3727 18.6977 22.219 19.4322C22.0329 19.1533 21.8561 18.8743 21.67 18.5954C21.4932 18.3258 21.3165 18.0468 21.1304 17.7586C21.8096 17.1171 22.6376 16.801 23.5308 16.6429C24.3961 16.4849 25.2614 16.4942 26.0987 16.7731C27.2524 17.1543 27.9967 17.9167 28.1921 19.1347C28.3875 20.3991 28.0619 21.4683 26.9175 22.1843C26.8803 22.2029 26.8524 22.24 26.8244 22.2679C28.2573 23.365 28.6666 24.6295 28.0991 26.2008C27.5781 27.6419 26.0615 28.5717 24.3589 28.4787C23.1401 28.4136 22.0143 28.1161 21.0374 27.2886C21.4095 26.7215 21.7724 26.1729 22.0701 25.7173C22.74 25.9684 23.3447 26.2287 23.9774 26.4053C24.2751 26.489 24.6287 26.4611 24.9357 26.396C25.8289 26.2194 26.2476 25.5872 26.1452 24.6574C26.0615 23.8764 25.4195 23.3186 24.5822 23.3093C24.1542 23.3093 23.7262 23.3093 23.2703 23.3093C23.2796 22.6956 23.2796 22.1378 23.2796 21.4962Z" fill="#fff"/>
</g>
</svg>
