<svg xmlns="http://www.w3.org/2000/svg" width="21.967" height="46" viewBox="0 0 21.967 46">
  <g id="Активная_категория" data-name="Активная категория" transform="translate(-255.644 -0.932)">
    <path id="Path_1" data-name="Path 1" d="M252.033,46.932v-46h7.532L274,23.469,252.033,46.932Z" transform="translate(3.611)" fill="#F89F44" fill-rule="evenodd"/>
  </g>
</svg>